アンケートデータの加工技術-その1
…
アンケートデータの加工技術-その1

A short description of the post.

  あんごう about.html 

04-08-2021

アンケートデータの特性

アンケートデータの一般的な形は以下のデータ形式であることが多い。

# A tibble: 100 x 4
      id   sex   age prefid
   <int> <dbl> <int>  <int>
 1     1     1    53     15
 2     2     1    40     42
 3     3     1    57     25
 4     4     1    52     38
 5     5     2    48      2
 6     6     1    42     33
 7     7     1    51     16
 8     8     1    61     39
 9     9     1    54      4
10    10     2    53     21
# … with 90 more rows
…
38    prefid      都道府県      35      山口県
39    prefid      都道府県      36      徳島県
40    prefid      都道府県      37      香川県
41    prefid      都道府県      38      愛媛県
42    prefid      都道府県      39      高知県
43    prefid      都道府県      40      福岡県
44    prefid      都道府県      41      佐賀県
45    prefid      都道府県      42      長崎県
46    prefid      都道府県      43      熊本県
47    prefid      都道府県      44      大分県
48    prefid      都道府県      45      宮崎県
49    prefid      都道府県      46    鹿児島県
50    prefid      都道府県      47      沖縄県

# A tibble: 300 x 5
      id variables values variables.lab choices.lab
   <int> <chr>      <dbl> <fct>         <fct>      
 1     1 sex            1 性別          男性       
 2     1 age           53 <NA>          <NA>       
 3     1 prefid        15 都道府県      新潟県     
 4     2 sex            1 性別          男性       
 5     2 age           40 <NA>          <NA>       
 6     2 prefid        42 都道府県      長崎県     
 7     3 sex            1 性別          男性       
 8     3 age           57 <NA>          <NA>       
 9     3 prefid        25 都道府県      滋賀県     
10     4 sex            1 性別          男性       
# … with 290 more rows

# A tibble: 100 x 7
      id values_sex_性別 values_age_NA values_prefid_都…
   <int>           <dbl>         <dbl>            <dbl>
 1     1               1            53               15
 2     2               1            40               42
 3     3               1            57               25
 4     4               1            52               38
 5     5               2            48                2
 6     6               1            42               33
 7     7               1            51               16
 8     8               1            61               39
 9     9               1            54                4
10    10               2            53               21
# … with 90 more rows, and 3 more variables:
#   choices.lab_sex_性別 <fct>, choices.lab_age_NA <fct>,
#   choices.lab_prefid_都道府県 <fct>

# A tibble: 300 x 8
      id variables.lab values_sex values_age values_prefid
   <int> <fct>              <dbl>      <dbl>         <dbl>
 1     1 性別                   1         NA            NA
 2     1 <NA>                  NA         53            NA
 3     1 都道府県              NA         NA            15
 4     2 性別                   1         NA            NA
 5     2 <NA>                  NA         40            NA
 6     2 都道府県              NA         NA            42
 7     3 性別                   1         NA            NA
 8     3 <NA>                  NA         57            NA
 9     3 都道府県              NA         NA            25
10     4 性別                   1         NA            NA
# … with 290 more rows, and 3 more variables: choices.lab_sex <fct>,
#   choices.lab_age <fct>, choices.lab_prefid <fct>

# A tibble: 300 x 4
      id variables values choices.lab
   <int> <chr>      <dbl> <fct>      
 1     1 sex            1 男性       
 2     1 age           53 <NA>       
 3     1 prefid        15 新潟県     
 4     2 sex            1 男性       
 5     2 age           40 <NA>       
 6     2 prefid        42 長崎県     
 7     3 sex            1 男性       
 8     3 age           57 <NA>       
 9     3 prefid        25 滋賀県     
10     4 sex            1 男性       
# … with 290 more rows

# A tibble: 100 x 7
      id   sex   age prefid sex_choices.lab age_choices.lab
   <int> <dbl> <dbl>  <dbl> <fct>           <fct>          
 1     1     1    53     15 男性            <NA>           
 2     2     1    40     42 男性            <NA>           
 3     3     1    57     25 男性            <NA>           
 4     4     1    52     38 男性            <NA>           
 5     5     2    48      2 女性            <NA>           
 6     6     1    42     33 男性            <NA>           
 7     7     1    51     16 男性            <NA>           
 8     8     1    61     39 男性            <NA>           
 9     9     1    54      4 男性            <NA>           
10    10     2    53     21 女性            <NA>           
# … with 90 more rows, and 1 more variable: prefid_choices.lab <fct>

# A tibble: 300 x 4
      id variables values choices.lab
   <int> <chr>      <dbl> <fct>      
 1     1 sex            1 男性       
 2     1 age           53 <NA>       
 3     1 prefid        15 新潟県     
 4     2 sex            1 男性       
 5     2 age           40 <NA>       
 6     2 prefid        42 長崎県     
 7     3 sex            1 男性       
 8     3 age           57 <NA>       
 9     3 prefid        25 滋賀県     
10     4 sex            1 男性       
# … with 290 more rows

# A tibble: 300 x 7
      id   sex   age prefid sex.lab age.lab prefid.lab
   <int> <dbl> <dbl>  <dbl> <fct>   <fct>   <fct>     
 1     1     1    NA     NA 男性    <NA>    <NA>      
 2     1    NA    53     NA <NA>    <NA>    <NA>      
 3     1    NA    NA     15 <NA>    <NA>    新潟県    
 4     2     1    NA     NA 男性    <NA>    <NA>      
 5     2    NA    40     NA <NA>    <NA>    <NA>      
 6     2    NA    NA     42 <NA>    <NA>    長崎県    
 7     3     1    NA     NA 男性    <NA>    <NA>      
 8     3    NA    57     NA <NA>    <NA>    <NA>      
 9     3    NA    NA     25 <NA>    <NA>    滋賀県    
10     4     1    NA     NA 男性    <NA>    <NA>      
# … with 290 more rows
